{
  "orders": [{
    "id": 4027529,
    "type": "Bid",
    "state": "traded",
    "created_at": "2017-10-15T03:03:13.969Z",
    "market_id": 1,
    "account_id": 1898,
    "fee_currency": "BTC",
    "price_type": "market",
    "limit": null,
    "amount": ["0.0", "BTC"],
    "original_amount": ["0.2234908", "BTC"],
    "traded_amount": ["0.2234908", "BTC"],
    "total_exchanged": ["815627.02", "CLP"],
    "paid_fee": ["0.00178792", "BTC"]
  }, {
    "id": 3972450,
    "type": "Bid",
    "state": "canceled",
    "created_at": "2017-10-04T08:04:47.784Z",
    "market_id": 1,
    "account_id": 1898,
    "fee_currency": "BTC",
    "price_type": "limit",
    "limit": ["1.0", "CLP"],
    "amount": ["1.0", "BTC"],
    "original_amount": ["1.0", "BTC"],
    "traded_amount": ["0.0", "BTC"],
    "total_exchanged": ["0.0", "CLP"],
    "paid_fee": ["0.0", "BTC"]
  }, {
    "id": 3972449,
    "type": "Bid",
    "state": "canceled",
    "created_at": "2017-10-04T08:04:20.099Z",
    "market_id": 1,
    "account_id": 1898,
    "fee_currency": "BTC",
    "price_type": "limit",
    "limit": ["1.0", "CLP"],
    "amount": ["1.0", "BTC"],
    "original_amount": ["1.0", "BTC"],
    "traded_amount": ["0.0", "BTC"],
    "total_exchanged": ["0.0", "CLP"],
    "paid_fee": ["0.0", "BTC"]
  }, {
    "id": 3972444,
    "type": "Bid",
    "state": "canceled",
    "created_at": "2017-10-04T08:01:36.456Z",
    "market_id": 1,
    "account_id": 1898,
    "fee_currency": "BTC",
    "price_type": "limit",
    "limit": ["1.0", "CLP"],
    "amount": ["1.0", "BTC"],
    "original_amount": ["1.0", "BTC"],
    "traded_amount": ["0.0", "BTC"],
    "total_exchanged": ["0.0", "CLP"],
    "paid_fee": ["0.0", "BTC"]
  }, {
    "id": 3972442,
    "type": "Bid",
    "state": "canceled",
    "created_at": "2017-10-04T07:58:26.282Z",
    "market_id": 1,
    "account_id": 1898,
    "fee_currency": "BTC",
    "price_type": "limit",
    "limit": ["1.0", "CLP"],
    "amount": ["1.0", "BTC"],
    "original_amount": ["1.0", "BTC"],
    "traded_amount": ["0.0", "BTC"],
    "total_exchanged": ["0.0", "CLP"],
    "paid_fee": ["0.0", "BTC"]
  }, {
    "id": 3972435,
    "type": "Bid",
    "state": "canceled",
    "created_at": "2017-10-04T07:55:21.989Z",
    "market_id": 1,
    "account_id": 1898,
    "fee_currency": "BTC",
    "price_type": "limit",
    "limit": ["1.0", "CLP"],
    "amount": ["1.0", "BTC"],
    "original_amount": ["1.0", "BTC"],
    "traded_amount": ["0.0", "BTC"],
    "total_exchanged": ["0.0", "CLP"],
    "paid_fee": ["0.0", "BTC"]
  }, {
    "id": 3972434,
    "type": "Bid",
    "state": "canceled",
    "created_at": "2017-10-04T07:53:01.440Z",
    "market_id": 1,
    "account_id": 1898,
    "fee_currency": "BTC",
    "price_type": "limit",
    "limit": ["1.0", "CLP"],
    "amount": ["1.0", "BTC"],
    "original_amount": ["1.0", "BTC"],
    "traded_amount": ["0.0", "BTC"],
    "total_exchanged": ["0.0", "CLP"],
    "paid_fee": ["0.0", "BTC"]
  }, {
    "id": 3972371,
    "type": "Bid",
    "state": "canceled",
    "created_at": "2017-10-04T07:25:06.873Z",
    "market_id": 1,
    "account_id": 1898,
    "fee_currency": "BTC",
    "price_type": "limit",
    "limit": ["1.0", "CLP"],
    "amount": ["1.0", "BTC"],
    "original_amount": ["1.0", "BTC"],
    "traded_amount": ["0.0", "BTC"],
    "total_exchanged": ["0.0", "CLP"],
    "paid_fee": ["0.0", "BTC"]
  }, {
    "id": 3900419,
    "type": "Ask",
    "state": "traded",
    "created_at": "2017-09-14T17:03:00.144Z",
    "market_id": 1,
    "account_id": 1898,
    "fee_currency": "CLP",
    "price_type": "market",
    "limit": null,
    "amount": ["0.0", "BTC"],
    "original_amount": ["0.3233", "BTC"],
    "traded_amount": ["0.3233", "BTC"],
    "total_exchanged": ["717447.67", "CLP"],
    "paid_fee": ["5022.1", "CLP"]
  }, {
    "id": 3742088,
    "type": "Bid",
    "state": "canceled",
    "created_at": "2017-08-24T02:21:39.126Z",
    "market_id": 1,
    "account_id": 1898,
    "fee_currency": "BTC",
    "price_type": "limit",
    "limit": ["2.0", "CLP"],
    "amount": ["5.0", "BTC"],
    "original_amount": ["5.0", "BTC"],
    "traded_amount": ["0.0", "BTC"],
    "total_exchanged": ["0.0", "CLP"],
    "paid_fee": ["0.0", "BTC"]
  }, {
    "id": 3742075,
    "type": "Bid",
    "state": "canceled",
    "created_at": "2017-08-24T02:20:57.073Z",
    "market_id": 1,
    "account_id": 1898,
    "fee_currency": "BTC",
    "price_type": "limit",
    "limit": ["2.0", "CLP"],
    "amount": ["5.0", "BTC"],
    "original_amount": ["5.0", "BTC"],
    "traded_amount": ["0.0", "BTC"],
    "total_exchanged": ["0.0", "CLP"],
    "paid_fee": ["0.0", "BTC"]
  }, {
    "id": 3742004,
    "type": "Bid",
    "state": "canceled",
    "created_at": "2017-08-24T02:06:23.228Z",
    "market_id": 1,
    "account_id": 1898,
    "fee_currency": "BTC",
    "price_type": "limit",
    "limit": ["1.0", "CLP"],
    "amount": ["5.0", "BTC"],
    "original_amount": ["5.0", "BTC"],
    "traded_amount": ["0.0", "BTC"],
    "total_exchanged": ["0.0", "CLP"],
    "paid_fee": ["0.0", "BTC"]
  }, {
    "id": 3741993,
    "type": "Bid",
    "state": "canceled",
    "created_at": "2017-08-24T02:05:21.155Z",
    "market_id": 1,
    "account_id": 1898,
    "fee_currency": "BTC",
    "price_type": "limit",
    "limit": ["1.0", "CLP"],
    "amount": ["5.0", "BTC"],
    "original_amount": ["5.0", "BTC"],
    "traded_amount": ["0.0", "BTC"],
    "total_exchanged": ["0.0", "CLP"],
    "paid_fee": ["0.0", "BTC"]
  }, {
    "id": 3741974,
    "type": "Bid",
    "state": "canceled",
    "created_at": "2017-08-24T02:04:05.501Z",
    "market_id": 1,
    "account_id": 1898,
    "fee_currency": "BTC",
    "price_type": "limit",
    "limit": ["1.0", "CLP"],
    "amount": ["5.0", "BTC"],
    "original_amount": ["5.0", "BTC"],
    "traded_amount": ["0.0", "BTC"],
    "total_exchanged": ["0.0", "CLP"],
    "paid_fee": ["0.0", "BTC"]
  }, {
    "id": 3741973,
    "type": "Bid",
    "state": "canceled",
    "created_at": "2017-08-24T02:03:00.098Z",
    "market_id": 1,
    "account_id": 1898,
    "fee_currency": "BTC",
    "price_type": "limit",
    "limit": ["1.0", "CLP"],
    "amount": ["5.0", "BTC"],
    "original_amount": ["5.0", "BTC"],
    "traded_amount": ["0.0", "BTC"],
    "total_exchanged": ["0.0", "CLP"],
    "paid_fee": ["0.0", "BTC"]
  }, {
    "id": 3741938,
    "type": "Bid",
    "state": "canceled",
    "created_at": "2017-08-24T01:57:12.616Z",
    "market_id": 1,
    "account_id": 1898,
    "fee_currency": "BTC",
    "price_type": "limit",
    "limit": ["1.0", "CLP"],
    "amount": ["1.0", "BTC"],
    "original_amount": ["1.0", "BTC"],
    "traded_amount": ["0.0", "BTC"],
    "total_exchanged": ["0.0", "CLP"],
    "paid_fee": ["0.0", "BTC"]
  }, {
    "id": 3741703,
    "type": "Bid",
    "state": "canceled",
    "created_at": "2017-08-24T01:16:52.804Z",
    "market_id": 1,
    "account_id": 1898,
    "fee_currency": "BTC",
    "price_type": "limit",
    "limit": ["1.0", "CLP"],
    "amount": ["1.0", "BTC"],
    "original_amount": ["1.0", "BTC"],
    "traded_amount": ["0.0", "BTC"],
    "total_exchanged": ["0.0", "CLP"],
    "paid_fee": ["0.0", "BTC"]
  }, {
    "id": 3741702,
    "type": "Bid",
    "state": "canceled",
    "created_at": "2017-08-24T01:15:52.727Z",
    "market_id": 1,
    "account_id": 1898,
    "fee_currency": "BTC",
    "price_type": "limit",
    "limit": ["1.0", "CLP"],
    "amount": ["1.0", "BTC"],
    "original_amount": ["1.0", "BTC"],
    "traded_amount": ["0.0", "BTC"],
    "total_exchanged": ["0.0", "CLP"],
    "paid_fee": ["0.0", "BTC"]
  }, {
    "id": 3741700,
    "type": "Bid",
    "state": "canceled",
    "created_at": "2017-08-24T01:15:03.700Z",
    "market_id": 1,
    "account_id": 1898,
    "fee_currency": "BTC",
    "price_type": "limit",
    "limit": ["1.0", "CLP"],
    "amount": ["1.0", "BTC"],
    "original_amount": ["1.0", "BTC"],
    "traded_amount": ["0.0", "BTC"],
    "total_exchanged": ["0.0", "CLP"],
    "paid_fee": ["0.0", "BTC"]
  }, {
    "id": 3741698,
    "type": "Bid",
    "state": "canceled",
    "created_at": "2017-08-24T01:13:31.047Z",
    "market_id": 1,
    "account_id": 1898,
    "fee_currency": "BTC",
    "price_type": "limit",
    "limit": ["1.0", "CLP"],
    "amount": ["1.0", "BTC"],
    "original_amount": ["1.0", "BTC"],
    "traded_amount": ["0.0", "BTC"],
    "total_exchanged": ["0.0", "CLP"],
    "paid_fee": ["0.0", "BTC"]
  }],
  "meta": {
    "total_pages": 4,
    "total_count": 62,
    "current_page": 1
  }
}