{
  "orders": [{
    "id": 5359130,
    "market_id": "BTC-CLP",
    "account_id": 1895,
    "type": "Ask",
    "state": "traded",
    "created_at": "2018-02-06T04:19:57.443Z",
    "fee_currency": "CLP",
    "price_type": "market",
    "limit": null,
    "amount": ["0.0", "BTC"],
    "original_amount": ["0.02780227", "BTC"],
    "traded_amount": ["0.02780227", "BTC"],
    "total_exchanged": ["120967.72", "CLP"],
    "paid_fee": ["967.74", "CLP"]
  }, {
    "id": 4817230,
    "market_id": "BTC-CLP",
    "account_id": 1895,
    "type": "Ask",
    "state": "traded",
    "created_at": "2018-01-05T07:22:46.258Z",
    "fee_currency": "CLP",
    "price_type": "market",
    "limit": null,
    "amount": ["0.0", "BTC"],
    "original_amount": ["0.08708667", "BTC"],
    "traded_amount": ["0.08708667", "BTC"],
    "total_exchanged": ["827410.9", "CLP"],
    "paid_fee": ["5791.87", "CLP"]
  }, {
    "id": 4778915,
    "market_id": "BTC-CLP",
    "account_id": 1895,
    "type": "Bid",
    "state": "traded",
    "created_at": "2018-01-03T00:03:55.030Z",
    "fee_currency": "BTC",
    "price_type": "market",
    "limit": null,
    "amount": ["0.0", "BTC"],
    "original_amount": ["0.13012262", "BTC"],
    "traded_amount": ["0.13012262", "BTC"],
    "total_exchanged": ["1281650.03", "CLP"],
    "paid_fee": ["0.00091084", "BTC"]
  }, {
    "id": 4495081,
    "market_id": "BTC-CLP",
    "account_id": 1895,
    "type": "Bid",
    "state": "traded",
    "created_at": "2017-12-11T06:35:06.529Z",
    "fee_currency": "BTC",
    "price_type": "market",
    "limit": null,
    "amount": ["0.0", "BTC"],
    "original_amount": ["0.04825238", "BTC"],
    "traded_amount": ["0.04825238", "BTC"],
    "total_exchanged": ["569378.04", "CLP"],
    "paid_fee": ["0.00028951", "BTC"]
  }, {
    "id": 4494336,
    "market_id": "BTC-CLP",
    "account_id": 1895,
    "type": "Bid",
    "state": "canceled",
    "created_at": "2017-12-11T04:17:13.297Z",
    "fee_currency": "BTC",
    "price_type": "limit",
    "limit": ["1.0", "CLP"],
    "amount": ["1.0", "BTC"],
    "original_amount": ["1.0", "BTC"],
    "traded_amount": ["0.0", "BTC"],
    "total_exchanged": ["0.0", "CLP"],
    "paid_fee": ["0.0", "BTC"]
  }, {
    "id": 4494304,
    "market_id": "BTC-CLP",
    "account_id": 1895,
    "type": "Bid",
    "state": "canceled",
    "created_at": "2017-12-11T04:13:01.954Z",
    "fee_currency": "BTC",
    "price_type": "limit",
    "limit": ["1.0", "CLP"],
    "amount": ["1.0", "BTC"],
    "original_amount": ["1.0", "BTC"],
    "traded_amount": ["0.0", "BTC"],
    "total_exchanged": ["0.0", "CLP"],
    "paid_fee": ["0.0", "BTC"]
  }, {
    "id": 4494283,
    "market_id": "BTC-CLP",
    "account_id": 1895,
    "type": "Bid",
    "state": "canceled",
    "created_at": "2017-12-11T04:11:46.800Z",
    "fee_currency": "BTC",
    "price_type": "limit",
    "limit": ["1.0", "CLP"],
    "amount": ["1.0", "BTC"],
    "original_amount": ["1.0", "BTC"],
    "traded_amount": ["0.0", "BTC"],
    "total_exchanged": ["0.0", "CLP"],
    "paid_fee": ["0.0", "BTC"]
  }, {
    "id": 4492802,
    "market_id": "BTC-CLP",
    "account_id": 1895,
    "type": "Bid",
    "state": "canceled",
    "created_at": "2017-12-11T01:47:04.817Z",
    "fee_currency": "BTC",
    "price_type": "limit",
    "limit": ["1.0", "CLP"],
    "amount": ["1.0", "BTC"],
    "original_amount": ["1.0", "BTC"],
    "traded_amount": ["0.0", "BTC"],
    "total_exchanged": ["0.0", "CLP"],
    "paid_fee": ["0.0", "BTC"]
  }, {
    "id": 4491873,
    "market_id": "BTC-CLP",
    "account_id": 1895,
    "type": "Bid",
    "state": "canceled",
    "created_at": "2017-12-10T23:53:03.026Z",
    "fee_currency": "BTC",
    "price_type": "limit",
    "limit": ["1.0", "CLP"],
    "amount": ["1.0", "BTC"],
    "original_amount": ["1.0", "BTC"],
    "traded_amount": ["0.0", "BTC"],
    "total_exchanged": ["0.0", "CLP"],
    "paid_fee": ["0.0", "BTC"]
  }, {
    "id": 4491766,
    "market_id": "BTC-CLP",
    "account_id": 1895,
    "type": "Bid",
    "state": "canceled",
    "created_at": "2017-12-10T23:43:23.566Z",
    "fee_currency": "BTC",
    "price_type": "limit",
    "limit": ["1.0", "CLP"],
    "amount": ["1.0", "BTC"],
    "original_amount": ["1.0", "BTC"],
    "traded_amount": ["0.0", "BTC"],
    "total_exchanged": ["0.0", "CLP"],
    "paid_fee": ["0.0", "BTC"]
  }, {
    "id": 4491741,
    "market_id": "BTC-CLP",
    "account_id": 1895,
    "type": "Bid",
    "state": "canceled",
    "created_at": "2017-12-10T23:41:11.604Z",
    "fee_currency": "BTC",
    "price_type": "limit",
    "limit": ["1.0", "CLP"],
    "amount": ["1.0", "BTC"],
    "original_amount": ["1.0", "BTC"],
    "traded_amount": ["0.0", "BTC"],
    "total_exchanged": ["0.0", "CLP"],
    "paid_fee": ["0.0", "BTC"]
  }, {
    "id": 4491670,
    "market_id": "BTC-CLP",
    "account_id": 1895,
    "type": "Bid",
    "state": "canceled",
    "created_at": "2017-12-10T23:31:18.410Z",
    "fee_currency": "BTC",
    "price_type": "limit",
    "limit": ["1.0", "CLP"],
    "amount": ["1.0", "BTC"],
    "original_amount": ["1.0", "BTC"],
    "traded_amount": ["0.0", "BTC"],
    "total_exchanged": ["0.0", "CLP"],
    "paid_fee": ["0.0", "BTC"]
  }, {
    "id": 4491584,
    "market_id": "BTC-CLP",
    "account_id": 1895,
    "type": "Bid",
    "state": "canceled",
    "created_at": "2017-12-10T23:19:00.944Z",
    "fee_currency": "BTC",
    "price_type": "limit",
    "limit": ["1.0", "CLP"],
    "amount": ["1.0", "BTC"],
    "original_amount": ["1.0", "BTC"],
    "traded_amount": ["0.0", "BTC"],
    "total_exchanged": ["0.0", "CLP"],
    "paid_fee": ["0.0", "BTC"]
  }, {
    "id": 4491576,
    "market_id": "BTC-CLP",
    "account_id": 1895,
    "type": "Bid",
    "state": "canceled",
    "created_at": "2017-12-10T23:17:47.205Z",
    "fee_currency": "BTC",
    "price_type": "limit",
    "limit": ["1.0", "CLP"],
    "amount": ["1.0", "BTC"],
    "original_amount": ["1.0", "BTC"],
    "traded_amount": ["0.0", "BTC"],
    "total_exchanged": ["0.0", "CLP"],
    "paid_fee": ["0.0", "BTC"]
  }, {
    "id": 4487844,
    "market_id": "BTC-CLP",
    "account_id": 1895,
    "type": "Bid",
    "state": "canceled",
    "created_at": "2017-12-10T08:10:15.019Z",
    "fee_currency": "BTC",
    "price_type": "limit",
    "limit": ["1.0", "CLP"],
    "amount": ["1.0", "BTC"],
    "original_amount": ["1.0", "BTC"],
    "traded_amount": ["0.0", "BTC"],
    "total_exchanged": ["0.0", "CLP"],
    "paid_fee": ["0.0", "BTC"]
  }, {
    "id": 4470096,
    "market_id": "BTC-CLP",
    "account_id": 1895,
    "type": "Ask",
    "state": "traded",
    "created_at": "2017-12-08T21:55:55.548Z",
    "fee_currency": "CLP",
    "price_type": "market",
    "limit": null,
    "amount": ["0.0", "BTC"],
    "original_amount": ["0.0885", "BTC"],
    "traded_amount": ["0.0885", "BTC"],
    "total_exchanged": ["1028370.0", "CLP"],
    "paid_fee": ["7198.59", "CLP"]
  }, {
    "id": 4464874,
    "market_id": "BTC-CLP",
    "account_id": 1895,
    "type": "Bid",
    "state": "traded",
    "created_at": "2017-12-08T14:20:52.634Z",
    "fee_currency": "BTC",
    "price_type": "market",
    "limit": null,
    "amount": ["0.0", "BTC"],
    "original_amount": ["0.08909686", "BTC"],
    "traded_amount": ["0.08909686", "BTC"],
    "total_exchanged": ["1024245.02", "CLP"],
    "paid_fee": ["0.00062367", "BTC"]
  }, {
    "id": 4460548,
    "market_id": "BTC-CLP",
    "account_id": 1895,
    "type": "Ask",
    "state": "traded",
    "created_at": "2017-12-08T08:16:52.476Z",
    "fee_currency": "CLP",
    "price_type": "market",
    "limit": null,
    "amount": ["0.0", "BTC"],
    "original_amount": ["0.059", "BTC"],
    "traded_amount": ["0.059", "BTC"],
    "total_exchanged": ["628645.0", "CLP"],
    "paid_fee": ["4400.51", "CLP"]
  }, {
    "id": 4440456,
    "market_id": "BTC-CLP",
    "account_id": 1895,
    "type": "Bid",
    "state": "traded",
    "created_at": "2017-12-07T06:57:13.536Z",
    "fee_currency": "BTC",
    "price_type": "market",
    "limit": null,
    "amount": ["0.0", "BTC"],
    "original_amount": ["0.0594975", "BTC"],
    "traded_amount": ["0.0594975", "BTC"],
    "total_exchanged": ["600000.0", "CLP"],
    "paid_fee": ["0.00041648", "BTC"]
  }, {
    "id": 4440447,
    "market_id": "BTC-CLP",
    "account_id": 1895,
    "type": "Ask",
    "state": "traded",
    "created_at": "2017-12-07T06:56:38.494Z",
    "fee_currency": "CLP",
    "price_type": "market",
    "limit": null,
    "amount": ["0.0", "BTC"],
    "original_amount": ["0.1032", "BTC"],
    "traded_amount": ["0.1032", "BTC"],
    "total_exchanged": ["1016520.09", "CLP"],
    "paid_fee": ["7115.63", "CLP"]
  }],
  "meta": {
    "total_pages": 7,
    "total_count": 123,
    "current_page": 1
  }
}